%YAML 1.1
%TAG !u! tag:unity3d.com,2011:
--- !u!74 &7400000
AnimationClip:
  m_ObjectHideFlags: 0
  m_CorrespondingSourceObject: {fileID: 0}
  m_PrefabInstance: {fileID: 0}
  m_PrefabAsset: {fileID: 0}
  m_Name: Lemon tea
  serializedVersion: 7
  m_Legacy: 0
  m_Compressed: 0
  m_UseHighQualityCurve: 1
  m_RotationCurves: []
  m_CompressedRotationCurves: []
  m_EulerCurves: []
  m_PositionCurves: []
  m_ScaleCurves: []
  m_FloatCurves: []
  m_PPtrCurves:
  - serializedVersion: 2
    curve:
    - time: 0
      value: {fileID: 31471750, guid: 287cd9e1cdfbb29408e396698acb4e5c, type: 3}
    - time: 0.016666668
      value: {fileID: 1147412953, guid: 287cd9e1cdfbb29408e396698acb4e5c, type: 3}
    - time: 0.033333335
      value: {fileID: -617984218, guid: 287cd9e1cdfbb29408e396698acb4e5c, type: 3}
    - time: 0.05
      value: {fileID: -856125733, guid: 287cd9e1cdfbb29408e396698acb4e5c, type: 3}
    - time: 0.06666667
      value: {fileID: -1805648711, guid: 287cd9e1cdfbb29408e396698acb4e5c, type: 3}
    - time: 0.083333336
      value: {fileID: 1621021178, guid: 287cd9e1cdfbb29408e396698acb4e5c, type: 3}
    - time: 0.1
      value: {fileID: -972340747, guid: 287cd9e1cdfbb29408e396698acb4e5c, type: 3}
    - time: 0.11666667
      value: {fileID: 889068996, guid: 287cd9e1cdfbb29408e396698acb4e5c, type: 3}
    - time: 0.13333334
      value: {fileID: 1174979144, guid: 287cd9e1cdfbb29408e396698acb4e5c, type: 3}
    - time: 0.15
      value: {fileID: 1993013174, guid: 287cd9e1cdfbb29408e396698acb4e5c, type: 3}
    - time: 0.16666667
      value: {fileID: 599036471, guid: 287cd9e1cdfbb29408e396698acb4e5c, type: 3}
    - time: 0.18333334
      value: {fileID: 153383153, guid: 287cd9e1cdfbb29408e396698acb4e5c, type: 3}
    - time: 0.2
      value: {fileID: 1070341052, guid: 287cd9e1cdfbb29408e396698acb4e5c, type: 3}
    - time: 0.21666667
      value: {fileID: 2119545582, guid: 287cd9e1cdfbb29408e396698acb4e5c, type: 3}
    - time: 0.23333333
      value: {fileID: -342671260, guid: 287cd9e1cdfbb29408e396698acb4e5c, type: 3}
    - time: 0.25
      value: {fileID: 1156171104, guid: 287cd9e1cdfbb29408e396698acb4e5c, type: 3}
    - time: 0.26666668
      value: {fileID: -1233569942, guid: 287cd9e1cdfbb29408e396698acb4e5c, type: 3}
    - time: 0.28333333
      value: {fileID: -126590879, guid: 287cd9e1cdfbb29408e396698acb4e5c, type: 3}
    - time: 0.3
      value: {fileID: 135408085, guid: 287cd9e1cdfbb29408e396698acb4e5c, type: 3}
    - time: 0.31666666
      value: {fileID: 754937787, guid: 287cd9e1cdfbb29408e396698acb4e5c, type: 3}
    - time: 0.33333334
      value: {fileID: 1984201892, guid: 287cd9e1cdfbb29408e396698acb4e5c, type: 3}
    attribute: m_Sprite
    path: 
    classID: 212
    script: {fileID: 0}
    flags: 2
  m_SampleRate: 60
  m_WrapMode: 0
  m_Bounds:
    m_Center: {x: 0, y: 0, z: 0}
    m_Extent: {x: 0, y: 0, z: 0}
  m_ClipBindingConstant:
    genericBindings:
    - serializedVersion: 2
      path: 0
      attribute: 0
      script: {fileID: 0}
      typeID: 212
      customType: 23
      isPPtrCurve: 1
      isIntCurve: 0
      isSerializeReferenceCurve: 0
    pptrCurveMapping:
    - {fileID: 31471750, guid: 287cd9e1cdfbb29408e396698acb4e5c, type: 3}
    - {fileID: 1147412953, guid: 287cd9e1cdfbb29408e396698acb4e5c, type: 3}
    - {fileID: -617984218, guid: 287cd9e1cdfbb29408e396698acb4e5c, type: 3}
    - {fileID: -856125733, guid: 287cd9e1cdfbb29408e396698acb4e5c, type: 3}
    - {fileID: -1805648711, guid: 287cd9e1cdfbb29408e396698acb4e5c, type: 3}
    - {fileID: 1621021178, guid: 287cd9e1cdfbb29408e396698acb4e5c, type: 3}
    - {fileID: -972340747, guid: 287cd9e1cdfbb29408e396698acb4e5c, type: 3}
    - {fileID: 889068996, guid: 287cd9e1cdfbb29408e396698acb4e5c, type: 3}
    - {fileID: 1174979144, guid: 287cd9e1cdfbb29408e396698acb4e5c, type: 3}
    - {fileID: 1993013174, guid: 287cd9e1cdfbb29408e396698acb4e5c, type: 3}
    - {fileID: 599036471, guid: 287cd9e1cdfbb29408e396698acb4e5c, type: 3}
    - {fileID: 153383153, guid: 287cd9e1cdfbb29408e396698acb4e5c, type: 3}
    - {fileID: 1070341052, guid: 287cd9e1cdfbb29408e396698acb4e5c, type: 3}
    - {fileID: 2119545582, guid: 287cd9e1cdfbb29408e396698acb4e5c, type: 3}
    - {fileID: -342671260, guid: 287cd9e1cdfbb29408e396698acb4e5c, type: 3}
    - {fileID: 1156171104, guid: 287cd9e1cdfbb29408e396698acb4e5c, type: 3}
    - {fileID: -1233569942, guid: 287cd9e1cdfbb29408e396698acb4e5c, type: 3}
    - {fileID: -126590879, guid: 287cd9e1cdfbb29408e396698acb4e5c, type: 3}
    - {fileID: 135408085, guid: 287cd9e1cdfbb29408e396698acb4e5c, type: 3}
    - {fileID: 754937787, guid: 287cd9e1cdfbb29408e396698acb4e5c, type: 3}
    - {fileID: 1984201892, guid: 287cd9e1cdfbb29408e396698acb4e5c, type: 3}
  m_AnimationClipSettings:
    serializedVersion: 2
    m_AdditiveReferencePoseClip: {fileID: 0}
    m_AdditiveReferencePoseTime: 0
    m_StartTime: 0
    m_StopTime: 0.35000002
    m_OrientationOffsetY: 0
    m_Level: 0
    m_CycleOffset: 0
    m_HasAdditiveReferencePose: 0
    m_LoopTime: 1
    m_LoopBlend: 0
    m_LoopBlendOrientation: 0
    m_LoopBlendPositionY: 0
    m_LoopBlendPositionXZ: 0
    m_KeepOriginalOrientation: 0
    m_KeepOriginalPositionY: 1
    m_KeepOriginalPositionXZ: 0
    m_HeightFromFeet: 0
    m_Mirror: 0
  m_EditorCurves: []
  m_EulerEditorCurves: []
  m_HasGenericRootTransform: 0
  m_HasMotionFloatCurves: 0
  m_Events: []
